{
  "33d60079-74cc-43d8-b086-36b4cb159017": "protoman120",
  "ea3729ae-0b2c-4ee9-ac23-270fec2320f8": "lsharman",
  "f0d1d8bd-5f8d-3ff8-bb66-bae454fd4c5b": "protoman120",
  "7bd1afa2-3fb5-39ef-8a40-be52364bcb4f": "williampjs44",
  "da65c63a-d820-3db0-a139-6d8a42c43fee": "lsharman",
  "1eeb8bf4-640d-3b4d-8e54-55ea881f7d49": "Ponsy10"
}