id: d6b02c82-b7be-3150-a1bf-f7efdf39b61b
name: _starscream_
created: 1586892902423
last_cast: 1587037967727
cooldown_expiration: 0
last_death_location: 684.6087612945544,75.0,2506.4132284048837,world,307.97134,65.24976
fall_protection_count: 0
fall_protection: 0
brush:
  map_id: 1
  material: air
  data: 0
  schematic: ''
  scale: 1.0
  erase: true
undo: []
spells:
  missile:
    cast_count: 20
    last_cast: 1586897794250
    last_earn: 1586897794323
    cooldown_expiration: 1586897795250
  missile|2:
    cast_count: 39
    last_cast: 1587037967727
    last_earn: 1586967845647
    cooldown_expiration: 0
wands:
  wand:
    item:
      ==: org.bukkit.inventory.ItemStack
      v: 2227
      type: WOODEN_HOE
      meta:
        ==: ItemMeta
        meta-type: UNSPECIFIC
        display-name: §3Wand
        lore:
        - §o§a§7Beginner §rMagic Wand
        - §3§oBound to _starscream_
        - '§eMana: 50'
        - '§eMana Regeneration: 5/s'
        attribute-modifiers:
          GENERIC_ATTACK_SPEED:
          - ==: org.bukkit.attribute.AttributeModifier
            amount: 10.0
            name: Equipment Modifier
            slot: HAND
            uuid: c8d62fbf-e83d-4dc5-8d99-44db706c7b9d
            operation: 0
        ItemFlags:
        - HIDE_ENCHANTS
        - HIDE_ATTRIBUTES
        - HIDE_UNBREAKABLE
        - HIDE_DESTROYS
        - HIDE_PLACED_ON
        - HIDE_POTION_EFFECTS
        Unbreakable: true
        Damage: 1
        internal: H4sIAAAAAAAAADWM0WrDIBRAb1hGQxbYT2xvDWjapHE/I1e9UplRUdewv18o7DyeA6cHaKD9JkpND+2OwXTQVdqSx0r/4jXugTIMslTMRWfCTXYwkLWkq9TRxwyfy7QgGj3xWZjzKpYrWcFWEmfFFNJ6nRkiP+bPl3QGPsyi2KTXaVQ3ReOFz2xEruxob2SNvQi1cNVB63QMMOwxGgryHumLv8DpQbm4wwOcengvibyXLjwo1Jh/j765UpwneNLA208wOaaEylMDf9gqMez1AAAA
    wand:
      template: wand
      owner: _starscream_
      effect_color: 626aadc2159d,8964ef908e9,b0bae8450aa1
      owner_id: d6b02c82-b7be-3150-a1bf-f7efdf39b61b
      icon: wooden_hoe:1
      version: 7
      spell_inventory:
        missile: 0
open_wand: false
gave_welcome_wand: false
data:
  sp: 118
properties:
  version: 7
classes:
  caster:
    mana_timestamp: 1587038766801
    mana: 50.0
    spell_levels:
      missile: 2
  mage: {}
active_class: mage
health: 20.0
